{
	"title" : "app",
	"domaineName" : "communecter.org",
    "metaImg" : "themes/CO2/assets/img/bg_pixeltree2.jpg",
	"metaTitle" : "Communecter, le réseau sociétal citoyen libre",
	"metaDesc" : "Retrouvez la richesse qui vous entoure. Créez votre réseau, communiquez et agissez sur votre société. Communecter, le numérique libre au service du réel !",
    "devises" : {
    			"all":"All",
    			"€" : "€",
    			 "Ğ1" : "Ğ1",
                 "£" : "£",
                 "$" : "$",
                 "CFP" : "CFP",
             	 "FC" : "FC"},
    "deviseDefault" : "€",
    "nbAdminModeration" : 3,
    "nbReportCoModeration" : 3,
    "appRendering":"vertical",
    "onepageKey" : [ "co", "net" ],
    "costum" : [ "xo","cos", "costum" ],
    "urlKey":{
    	"eco":"annonces",
    	"search":"search",
    	"live":"live",
    	"page":"page",
    	"agenda":"agenda",
    	"index":"index"
    },
	"pages" : {
		"#app.index": {
			"redirect": {
				"logged":"home",
				"unlogged":"welcome"
			}
		},
		"#welcome": {
			"inMenu" : false, 
			"useFooter" : true, 
			"useFilter" : false, 
			"dropdownResult":true,
			"subdomain" : "welcome", 
			"subdomainName" : "About",
			"hash" : "#app.welcome",
			"icon" : "", 
			"mainTitle" : "Réseau sociétal <span class='text-red'>territorial</span>",
			"placeholderMainSearch" : "what are you looking for ?",
			"lblBtnCreate" : "Create something",
			"colorBtnCreate" : "green",
			"useMapBtn":false
		},
		"#home": {
			"inMenu" : false, 
			"useFooter" : true, 
			"useFilter" : false, 
			"subdomain" : "home", 
			"dropdownResult":true,
			"subdomainName" : "My home",
			"hash" : "#app.home",
			"icon" : "", 
			"mainTitle" : "My citizen network",
			"placeholderMainSearch" : "what are you looking for ?",
			"lblBtnCreate" : "Create something",
			"colorBtnCreate" : "green"
		},
		"#docs": {
			"inMenu" : false, 
			"subdomain" : "docs", 
			"subdomainName" : "Documentation",
			"hash" : "#app.docs",
			"icon" : "", 
			"mainTitle" : "Réseau sociétal <span class='text-red'>territorial</span>",
			"placeholderMainSearch" : "search something ...",
			"lblBtnCreate" : "Create something",
			"colorBtnCreate" : "green"
		},
		"#search": {
			"inMenu" : true, 
			"useFooter" : true, 
			"useFilter" : true,
			"subdomain" : "search", 
			"subdomainName" : "Search",
			"hash" : "#app.search",
			"icon" : "search", 
			"type" : "all",
			"mainTitle" : "<span class='text-red'>Territorial</span> search engine",
			"placeholderMainSearch" : "what are you looking for ?",
			"lblBtnCreate" : "Create a page",
			"colorBtnCreate" : "green",
			"initFilters":[
				"text",
				"tags",
				"locality",
				"types",
				"countType",
				"page",
				"initType",
				"count"
			]

		},
		"#web":
      	  	{ "inMenu" : false, 
              "useFilter" : false,
              "subdomain" : "web", 
              "subdomainName" : "Web",
              "hash" : "#app.web",
              "icon" : "globe", 
              "mainTitle" : "Moteur de recherche",
              "placeholderMainSearch" : "Que recherchez-vous ?"
        },
      	"#referencement":
      	  	{	
      	  	"inMenu" : false, 
              "subdomain" : "referencement", 
              "subdomainName" : "Referencement",
              "hash" : "#app.referencement",
              "icon" : "search", 
              "mainTitle" : "Référencer une page",
              "placeholderMainSearch" : ""},


		"#live": {
			"inMenu" : true, 
			"useFilter" : true,
			"subdomain" : "live", 
			"useFooter" : true, 
			"subdomainName" : "Live",
			"hash":"#app.live",
			"type" : "news",
			"icon" : "newspaper-o", 
			"mainTitle" : "<span class='text-red'>CO</span>mmon live",
			"placeholderMainSearch" : "search in live ...",
			"initFilters":[
				"text",
				"tags",
				"locality"
			]
		},
		      
		"#agenda": {
			"inMenu" : true, 
			"useFilter" : true,
			"useFooter" : true, 
			"subdomain" : "agenda", 
			"subdomainName" : "Events",
			"hash":"#app.agenda",
			"icon" : "calendar", 
			"type" : "events",
			"mainTitle" : "<span class='text-red'>C</span>Ommon agenda",
			"placeholderMainSearch" : "search an event ...",
			"lblBtnCreate" : "Create an event",
			"colorBtnCreate" : "orange",
			"initFilters":[
				"text",
				"tags",
				"locality",
				"searchSType"
			]
		},
      
		"#annonces": {
			"inMenu" : true, 
			"useFilter" : true,
			"useFooter" : true, 
			"subdomain" : "annonces", 
			"subdomainName" : "Classifieds",
			"hash" : "#",
			"module":"eco",
			"icon" : "bullhorn", 
			"type" : "classifieds",
			"mainTitle" : "Classified ads",
			"placeholderMainSearch" : "search among classifieds ...",
			"lblBtnCreate" : "Create a classified ad",
			"colorBtnCreate" : "azure",
			"initFilters":[
				"text",
				"tags",
				"locality",
				"searchSType",
				"section",
				"subType",
				"devise",
				"priceMin",
				"priceMax"
			]
		},
        "#map": {
			"inMenu" : false, 
			"useFilter" : false,
			"useFooter" : false, 
			"subdomain" : "map", 
            "subdomainName" : "map",
			"hash" : "#app.map",
			"icon" : "map-marker",
			"mainTitle" : "Map",
			"placeholderMainSearch" : "Map",
			"filtres" : {
				"types" : ["projects", "organizations", "events"],
				"limit" : 0
			}
		},
		"#dda": {
			"inMenu" : true, 
			"useFooter" : true, 
			"useFilter" : {"scope":true, "filters":false},
			"subdomain" : "dda", 
			"subdomainName" : "Agora Citoyenne",
			"hash" : "#",
			"module":"dda",
			"icon" : "gavel", 
			"type" : "proposals",
			"mainTitle" : "CO-démocratie",
			"placeholderMainSearch" : "search among proposals ...",
			"lblBtnCreate" : "Create a proposals ad",
			"colorBtnCreate" : "azure",
			"initFilters":[
				"text",
				"tags",
				"locality"
			]
		},
		"#place":
		    {"inMenu" : false, 
		    "subdomain" : "place", 
		    "subdomainName" : "Lieux",
		    "hash" : "#app.search.type.place",
		    "icon" : "map-marker", 
		    "mainTitle" : "Moteur de Lieux <span class='text-red'>territoriales</span>",
		    "placeholderMainSearch" : "Rechercher un lieu ...",
		    "lblBtnCreate" : "Ajouter un lieu",
		    "colorBtnCreate" : "green"
		},
		"#chat": {
			"inMenu" : false, 
			"subdomain" : "chat", 
			"subdomainName" : "Chat",
			"alias":"#chatAction",
			"login" : true,
			"notif" : "chatNotifs",
			"icon" : "comments", 
			"mainTitle" : "<span class='text-red'>CHAT with your communities</span>",
			"removeAfterLoad" : true, 
			"emptyContextData" : false
		},
		"#page": {
			"inMenu" : false, 
			"useFilter" : false, 
			"useFooter" : true, 
			"dropdownResult":true,
			"subdomain" : "page", 
			"subdomainName" : "page",
			"hash":"#app.page",
			"icon" : "", 
			"mainTitle" : "Réseau social citoyen",
			"placeholderMainSearch" : "what are you looking for ?"
		},
		"#info": {
			"inMenu" : false, 
			"dropdownResult":true,
			"useFilter" : false, 
			"subdomain" : "apropos", 
			"subdomainName" : "Info",
			"hash":"#app.info",
			"icon" : "info-circle", 
			"mainTitle" : "Réseau social citoyen",
			"placeholderMainSearch" : "search on people communected ..."
		},

        "#power": {
            "inMenu" : false, 
            "subdomain" : "power", 
            "subdomainName" : "Power",
            "hash":"#app.power",
            "icon" : "hand-rock-o", 
            "mainTitle" : "CO-démocratie",
            "placeholderMainSearch" : "search ...",
            "lblBtnCreate" : "Faire une proposition",
            "colorBtnCreate" : "azure"
        },


        "#city": {
            "inMenu" : false, 
            "subdomain" : "city", 
            "subdomainName" : "City",
            "hash":"#app.city",
            "icon" : "university", 
            "mainTitle" : "Communexion activée",
            "placeholderMainSearch" : "search ..."
        },

		"#rooms": {
			"inMenu" : false, 
			"subdomain" : "rooms", 
			"subdomainName" : "rooms",
			"hash":"#app.rooms",
			"icon" : "university", 
			"mainTitle" : "Communexion activée",
			"placeholderMainSearch" : "search ..."
		},

		"#survey": {
			"inMenu" : false, 
			"useFilter" : false,   
			"subdomain" : "city", 
			"subdomainName" : "City",
			"hash":"#app.survey",
			"icon" : "university", 
			"mainTitle" : "Communexion activée",
			"placeholderMainSearch" : "search ..."
		},

		"#admin": {
			"inMenu" : false, 
			"useFilter" : false, 
			"useFooter" : false,  
			"useMapBtn":false,
			"subdomain" : "admin", 
			"subdomainName" : "admin",
			"hash":"#app.admin",
			"icon" : "university", 
			"mainTitle" : "Partie Admin",
			"placeholderMainSearch" : "Admin ..."
		},

        "#adminpublic": {
            "inMenu" : false, 
            "useFilter" : false,  
            "subdomain" : "admin", 
            "subdomainName" : "admin",
            "hash":"#adminpublic",
            "icon" : "university", 
            "mainTitle" : "Partie Admin Public",
            "placeholderMainSearch" : "Admin Public ..."
        }
	},
	"languages":{
		"en" : "English",
		"fr" : "French",
		"de" : "German",
		"es" : "Spanish",
		"it" : "Italian"	
	},
	"header":{
		"banner":false,
		"menuTop":{
			"navLeft" : {
                "logo" : {
                	"url": "/assets/img/LOGOS/CO2/logo-min.png",
                	"height":30
                },
                "searchBar":{
                	"dropdownResult":false
            	},
            	"useFilter":{
                    "scopeFilter" : true,
                    "showFilter" : true
	            }
            },
            "navRight" : {
                "connected" : {
                	"map" : true,
                    "dropdownUser" : {
                        "languages" : {
                        	"label":"Languages",
                        	"icon" : "language",
                        	"liClass":"menu-lang dropdown-submenu dropdown-menu-left",
                        	"href":"javascript:;"
                        },
                        "statistics" : {
                        	"label":"Statistics",
                        	"icon" : "bar-chart",
                        	"liClass":"statistics-btn",
                        	"aClass":"lbh",
                        	"href":"#info.p.stats"
                        },
                        "documentation" : {
                        	"label":"Documentation",
                        	"icon" : "book",
                        	"liClass":"documentation-btn",
                        	"aClass":"lbh",
                        	"href":"#docs.page.welcome"
                        },
                        "donate" : {
                        	"label":"Recurring donation",
                        	"icon" : "heart",
                        	"liClass":"donation-btn",
                        	"href":"https://www.helloasso.com/associations/open-atlas/collectes/communecter/don",
                        	"blank":true
                        },
                        "admin" : {
                        	"icon" : "user-secret",
                        	"href":"#admin",
                        	"aClass":"lbh"
                        },
                        "settings" : {
                        	"label":"My parameters",
                        	"icon" : "cogs",
                        	"aClass":"lbh",
                        	"href":"#{slug}.view.settings"
                        },
                        "logout" : {
                        	"href":"/co2/person/logout",
                        	"aClass":"letter-red logout",
                        	"icon":"sign-out",
                        	"label":"Log Out"
                        }
                    },
                    "userProfil" : {
                    	"name":true,
                    	"img":true
                    },
                    "networkFloop" : true,
                    "notifications" : true,
                    "dda" : false,
                    "chat" : true,
                    "home" : true
                },
                "disconnected" : {
                	"map" : true,
                    "languages" : true,
                    "login" : {"label":"LOG IN", "icon":"sign-in", "dataTarget":"#modalLogin"}
                }
            }
		}
	},
	"subMenu":{
		"app":{
			"icon":true,
			"label":false,
			"tooltop":{"pos":"left"}
		}
	},
	"footer":true,
	"menuBottom":{
		"add":true,
		"donate":true
	},
	"directory":{
		"header":true,
		"body":true,
		"footer":true
	},
	"adminPanel": {
		"add":false,
		"menu":{
			"directory" :{
	            "label":"Directory",
	            "super":true,
	            "class":"text-yellow",
	            "view":"directory",
	            "icon":"user"
	        },
	        "reference":{
	            "label":"Reference",
	            "sourceKey":true,
	            "init":["organizations", "events", "projects"],
	            "class":"text-azure",
	            "view":"reference",
	            "show":false,
	            "icon":"creative-commons"
	        },
	         "community" : {
	            "label":"Community",
	            "show":false,
	            "costumAdmin":true,
	            "class":"letter-blue",
	            "view":"community",
	            "icon":"group"
	        },
	        "converter":{
	            "label":"Converter",
	           	"class":"text-green",
	            "view": "import",
	            "icon":"upload"
	        },
	        "import":{
	            "label":"IMPORT DATA",
	           	"class":"letter-blue",
	            "view": "addData",
	            "icon":"plus"
	        },
	        "mails":{
	            "label":"Mails simulator",
	            "costumAdmin":true,
	            "class": "text-purple",
	            "view":"mailslist",
	            "icon":"at"
	        },
	        "log":{
	            "label":"LOG",
	            "super":true,
	            "class":"text-dark",
	            "view": "log",
	            "icon":"list"
	        },
	        "moderation":{
	            "label":"MODERATION",
	            "class":"text-red",
	            "view":"moderate",
	            "icon":"check"
	        },
	        "statistic":{
	            "label":"Statitics",
	            "class":"text-orange",
	            "view":"statistic",
	            "icon":"bar-chart"
	        },
	        "mailerror" :{
	            "label":"Mail error",
	            "super":true,
	            "class":"text-yellow",
	            "view":"mailerror",
	            "icon":"envelope"
	        },
	        "notsendmail" :{
	            "label":"Not send mail",
	            "super":true,
	            "class":"text-red",
	            "view":"notsendmail",
	            "icon":"envelope"
	        }
	    }
	},
	"preview":{
		"toolBar":{
			"edit":false,
			"goToItem":true,
			"close":true
		},
		"banner":{
			"edit":false,
			"defaultImg":"",
			"profilImg":true
		},
		"body":{
			"name":true,
			"type":true,
			"eventInfos":true,
			"tags":true,
			"locality":true,
			"shortDescription": true,
			"description": false,
			"url":false,
			"shareButton":[{"type":"co"},{"type":"facebook"}, {"type":"twitter"} ]
		}
	},
	"element":{
		"initView": "",
		"banner":{
			"img":"",
			"editButton":{
				"id": "",
				"dynform": false	
			},
			"preferences": true,
			"headerInfos":true,
			"badges":true
		},
		"containerClass":{
			"menuLeft":"col-xs-12 col-sm-3 col-md-3 col-lg-2 no-padding hidden-xs",
			"menuTop":"col-xs-12",
			"menuTopImage":"col-lg-2 col-md-3 col-sm-3 hidden-xs no-padding",
			"menuTopGroupBtn":"col-md-offset-3 col-sm-offset-3 col-lg-offset-2 col-md-9 col-sm-9 col-lg-10 col-xs-12 no-padding",
			"centralSection":"col-xs-12 col-md-9 col-sm-9 col-lg-10"
		},
		"menuLeft":{
			"newspaper":{
				"label": "Newspaper",
				"icon":"rss",
				"class":"visible-xs",
				"view":"newspaper"
			},
			"detail":{
				"label": "About",
				"icon":"info-circle",
				"class":"",
				"view":"detail",
				"id":"btn-start-detail"
			},
			"chart":{
				"label": "Our values",
				"icon":"heartbeat",
				"class":"",
				"view":"chart",
				"typeAllow":["projects", "organizations", "events"]
			},
			"contact":{
				"label": "Contact",
				"icon":"envelope",
				"class":"",
				"id":"",
				"view":"contacts",
				"dataAttr":{
					"toggle":"modal",
					"target":"#selectCreate"
				},
				"typeAllow":["projects", "organizations", "events", "places"]
			},
			"gallery":{
				"label": "Gallery",
				"icon":"cloud",
				"class":"",
				"view":"gallery",
				"id":"btn-start-gallery",
				"separator":true
			},
			"community":{
				"label": "Community",
				"icon":"users",
				"class":"capitalize",
				"view":"directory",
				"dataAttr":{
					"icon":"users"
				}
			},
			"collections":{
				"label": "Collections",
				"icon":"star",
				"class":"",
				"separator":true,
				"view":"directory",
				"dataAttr":{
					"dir":"collections",
					"icon":"star"
				},
				"typeAllow":["citoyens"]
			},
			"events":{
				"label":"Agenda",
				"icon":"calendar",
				"view":"directory",
				"class":"",
				"dataAttr":{
					"dir":"events",
					"icon":"calendar"
				}
			},
			"projects":{
				"label":"Projects",
				"icon":"lightbulb-o",
				"view":"directory",
				"class":"",
				"separator":true,
				"dataAttr":{
					"dir":"projects",
					"icon":"lightbulb-o"
				},
				"typeAllow":["projects","citoyens","organizations","places"]
			},
			"classifieds":{
				"label":"Classifieds",
				"icon":"bullhorn",
				"class":"",
				"view":"directory",
				"dataAttr":{
					"dir":"classifieds",
					"icon":"bullhorn"
				},
				"typeAllow":["projects","citoyens","organizations","places"]	
			},
			"ressources":{
				"label":"Ressources",
				"icon":"cubes",
				"class":"",
				"view":"directory",
				"dataAttr":{
					"dir":"ressources",
					"icon":"cubes"
				}	
			},
			"jobs":{
				"label":"Jobs",
				"icon":"briefcase",
				"class":"",
				"view":"directory",
				"dataAttr":{
					"dir":"jobs",
					"icon":"briefcase"
				},
				"typeAllow":["projects","citoyens","organizations"]
			},
			"pois":{
				"label":"Points of interest",
				"icon":"map-marker",
				"class":"",
				"view":"directory",
				"dataAttr":{
					"dir":"poi",
					"icon":"map-marker"
				},
				"separator":true
			},
			"surveys":{
				"label":"Surveys",
				"icon":"gavel",
				"class":"",
				"view":"directory",
				"dataAttr":{
					"dir":"surveys",
					"icon":"gavel"
				},
				"separator":true,
				"typeAllow":["projects","citoyens","organizations"]
			},
			"cv":{
				"label":"My experiences",
				"icon":"clipboard",
				"class":"",
				"view":"curiculum",
				"separator":true,
				"typeAllow":["citoyens"]
			}
		},
		"menuTop":{
			"img":true,
			"btnGroup":{
				"imgProfil":{
					"class":"affixMenuImg visible-xs pull-left"
				},
				"nameProfil":{
					"class":"col-lg-1 col-md-2 col-sm-2 hidden-xs"
				},
				"newspaper":{
					"label": "Newspaper",
					"icon":"rss",
					"class":"hidden-xs",
					"view":"newspaper"
				},
				"chat":{
					"label": "Chat",
					"icon":"comments",
					"class":"text-red",
					"userConnected":true,
					"action":"chat"
				},
				"cospace":{
					"label":"CO-space",
					"icon":"connectdevelop",
					"class":"hidden-xs letter-turq",
					"action":"cospace",
					"dataAttr":{
						"toggle":"modal",
						"target":"#modalCoop"
					},
					"userConnected":true,
					"typeAllow":["projects", "organizations", "events"]
				},
				"create":{
					"label":"",
					"icon":"plus-circle fa-2x", 
					"class":"letter-green hidden-xs",
					"action":"create",
					"edit":true
				},
				"params":{
					"label":"Settings",
					"icon":"cogs", 
					"class":"pull-right",
					"labelClass":"hidden-sm",
					"dropdown":{
						"settings":{
							"label":"My parameters",
							"icon":"cogs",
							"typeAllow":["citoyens"],
							"edit":true,
							"view":"settings"
						},
						"settingsCommunity":{
							"label":"Settings params",
							"icon":"cogs",
							"typeAllow":["projects", "organizations", "events"],
							"edit":true,
							"view":"settingsCommunity"
						},
						"editSlug":{
							"label":"Edit slug",
							"icon":"id-badge",
							"typeAllow":["projects", "organizations", "events"],
							"edit":true,
							"action":"updateSlug"
						},
						"history":{
							"label":"History",
							"icon":"history",
							"typeAllow":["projects", "organizations", "events"],
							"openEdition":true,
							"view":"history"
						},
						"qrCode":{
							"label":"QR Code",
							"icon":"qrcode",
							"action":"qrCode"	
						},
						"chatSettings":{
							"label":"Chat settings",
							"icon":"comments",
							"typeAllow":["citoyens"],
							"edit":true,
							"action":"chatSettings"	
						},
						"md":{
							"label":"Markdown version",
							"icon":"file-text-o",
							"typeAllow":["citoyens"],
							"edit":true,
							"view":"md"
						},
						"mindmap":{
							"label":"Mindmap view",
							"icon":"sitemap",
							"typeAllow":["citoyens"],
							"edit":true,
							"action":"mindmap"
						},
						"downloadData":{
							"label":"Download data",
							"icon":"download",
							"action":"downloadData",
							"edit":true
						},
						"printOut" : {
							"label":"Print out",
							"icon":"print",
							"action":"printOut",
							"edit":true
						},
						"delete" : {
							"label":"Delete this page",
							"icon":"trash",
							"class": "text-red",
							"action":"delete",
							"edit":true,
							"typeAllow":["projects", "organizations", "events"]
						}
					}
				},
				"share":{
					"label":"Share",
					"icon":"share", 
					"class":"pull-right letter-green",
					"labelClass":"hidden-sm",
					"typeAllow":["projects", "organizations", "events"],
					"action":"share"
				}
			}	
		}
	}
}
